id;name;code
1;Savings;Borders Plastic
2;Refined;EXE overriding
3;Pants;Incredible Virginia
4;Granite Implemented;back-end Texas pink
5;enable Table;GB Executive Account
6;Toys Small;Ball Towels
7;Clothing Shilling;plum Business-focused
8;Visionary;Frozen Engineer Customer
9;Reduced;multi-byte
10;Tasty quantify;e-business Loti
