id;merchant_id;merchant_name;merchant_category;merchant_gl_account_no;merchant_bank_account_no;merchant_bank_account_currency;merchant_bank_code;merchant_bank_name;merchant_address;merchant_city;created_on;created_by;merchant_stataus
1;ROI;e-business;Music Manager bypass;eyeballs;Clothing;Nuevo Human;Pizza Bedfordshire;teal;Developer Wooden Computers;RAM Georgia;2022-01-11T17:10:43;Jordanian copy override;INACTIVE
2;Cotton Garden;web-readiness white;Reactive well-modulated;Synergized;Soft;blue silver;Leu tolerance Handmade;invoice New open;Shirt Unbranded;enhance pricing morph;2022-01-12T07:48:47;invoice bypassing;ACTIVE
3;Handcrafted Checking;Concrete Plains Analyst;Bacon optimal Representative;markets XSS Colorado;hacking array;Rustic matrix orchestration;transmit Won;Frozen;ivory Benin;transitional Corners Personal;2022-01-11T13:26:37;Personal;ACTIVE
4;Movies Beauty;Electronics National withdrawal;SMS;optical;background;Wisconsin withdrawal;vortals;reintermediate Antillian;Identity virtual tangible;Investment;2022-01-11T22:09:52;24/365;ACTIVE
5;Iowa;Intelligent;input collaborative;Avon primary Jewelery;strategic magenta;red morph;Designer;Berkshire Savings yellow;District Bike COM;Granite Pula;2022-01-11T12:37:22;Account virtual Analyst;INACTIVE
6;New generating Baby;morph Buckinghamshire International;Mouse invoice;Computers Cambridgeshire integrate;sky;tan Minnesota;Account cyan Beauty;Baby Dominican Berkshire;withdrawal Dollar Shoes;XSS Executive;2022-01-11T17:51:01;radical bluetooth;ACTIVE
7;overriding transmitting;Buckinghamshire Face Exclusive;system-worthy;Card Jordanian Road;Panama B2B;mobile system-worthy;Intelligent hybrid;up;standardization Roads Loan;copying Avon;2022-01-12T01:44:07;quantifying;INACTIVE
8;Fresh Afghani driver;utilize Texas;toolset New;Games Centralized;indigo Tunisian;Soft;navigate Car;Sol;Netherlands;New Berkshire;2022-01-11T17:35:31;utilize THX Tuna;ACTIVE
9;index Identity;invoice static withdrawal;demand-driven Books;Plastic tan;Licensed redefine;Prairie transmitting;Intelligent;Principal utilize;asymmetric;mobile Alaska;2022-01-11T15:27:41;Profound;INACTIVE
10;Ball;Strategist Concrete compressing;Maryland;Coordinator silver;SCSI alliance;black online;deposit connecting;Borders Creative;Oro Personal;Handmade;2022-01-11T15:48:30;capacity Rico;INACTIVE
