{
  "name": "Beneficiary",
  "fields": [
    {
      "fieldName": "title",
      "fieldType": "String"
    },
    {
      "fieldName": "beneficiaryName",
      "fieldType": "String"
    },
    {
      "fieldName": "beneficiaryAccountNo",
      "fieldType": "String"
    },
    {
      "fieldName": "beneficiarybankSwiftCode",
      "fieldType": "String"
    },
    {
      "fieldName": "intermediaryBankSwiftCode",
      "fieldType": "String"
    },
    {
      "fieldName": "beneficiaryBankName",
      "fieldType": "String"
    },
    {
      "fieldName": "beneficiaryBankBranchName",
      "fieldType": "String"
    },
    {
      "fieldName": "beneficiaryAddress1",
      "fieldType": "String"
    },
    {
      "fieldName": "beneficiaryAddress2",
      "fieldType": "String"
    },
    {
      "fieldName": "beneficiaryAddress3",
      "fieldType": "String"
    },
    {
      "fieldName": "beneficiaryState",
      "fieldType": "String"
    },
    {
      "fieldName": "beneficiaryPinCode",
      "fieldType": "String"
    },
    {
      "fieldName": "createdOn",
      "fieldType": "Instant"
    },
    {
      "fieldName": "createdBy",
      "fieldType": "String"
    }
  ],
  "relationships": [
    {
      "relationshipType": "many-to-one",
      "otherEntityName": "customer",
      "otherEntityRelationshipName": "beneficiary",
      "relationshipName": "customer",
      "otherEntityField": "firstName"
    },
    {
      "relationshipType": "many-to-one",
      "otherEntityName": "country",
      "otherEntityRelationshipName": "beneficiary",
      "relationshipName": "country",
      "otherEntityField": "name"
    },
    {
      "relationshipType": "many-to-one",
      "otherEntityName": "currency",
      "otherEntityRelationshipName": "beneficiary",
      "relationshipName": "currency",
      "otherEntityField": "name"
    }
  ],
  "entityTableName": "beneficiary",
  "dto": "no",
  "pagination": "no",
  "service": "no",
  "jpaMetamodelFiltering": false,
  "fluentMethods": true,
  "readOnly": false,
  "embedded": false,
  "applications": "*",
  "changelogDate": "20220117061851"
}
