{
  "name": "GlEntryType",
  "fields": [
    {
      "fieldName": "name",
      "fieldType": "String"
    },
    {
      "fieldName": "code",
      "fieldType": "String"
    }
  ],
  "relationships": [],
  "entityTableName": "gl_entry_type",
  "dto": "no",
  "pagination": "no",
  "service": "no",
  "jpaMetamodelFiltering": false,
  "fluentMethods": true,
  "readOnly": false,
  "embedded": false,
  "applications": "*",
  "changelogDate": "20220112090009"
}
